-- Merging decision tree log ---
manifest
ADDED from C:\Users\christian.gonzalez\Documents\APP_Android\ITServices\DropshippingMobileVIP\app\src\main\AndroidManifest.xml:2:1-28:12
INJECTED from C:\Users\christian.gonzalez\Documents\APP_Android\ITServices\DropshippingMobileVIP\app\src\main\AndroidManifest.xml:2:1-28:12
INJECTED from C:\Users\christian.gonzalez\Documents\APP_Android\ITServices\DropshippingMobileVIP\app\src\main\AndroidManifest.xml:2:1-28:12
INJECTED from C:\Users\christian.gonzalez\Documents\APP_Android\ITServices\DropshippingMobileVIP\app\src\main\AndroidManifest.xml:2:1-28:12
MERGED from [androidx.databinding:viewbinding:8.0.1] C:\Users\christian.gonzalez\.gradle\caches\transforms-3\7b698683d3435756477c453de44fcab7\transformed\viewbinding-8.0.1\AndroidManifest.xml:2:1-7:12
MERGED from [androidx.navigation:navigation-common:2.7.4] C:\Users\christian.gonzalez\.gradle\caches\transforms-3\786ede87ef6801004c84ac56b42ec12c\transformed\navigation-common-2.7.4\AndroidManifest.xml:17:1-22:12
MERGED from [androidx.navigation:navigation-common-ktx:2.7.4] C:\Users\christian.gonzalez\.gradle\caches\transforms-3\fd73388e4c9e4da90cf82712ae84402e\transformed\navigation-common-ktx-2.7.4\AndroidManifest.xml:2:1-7:12
MERGED from [androidx.navigation:navigation-runtime:2.7.4] C:\Users\christian.gonzalez\.gradle\caches\transforms-3\cea9b79e2efa27b6a65af080df15642a\transformed\navigation-runtime-2.7.4\AndroidManifest.xml:17:1-22:12
MERGED from [androidx.navigation:navigation-ui:2.7.4] C:\Users\christian.gonzalez\.gradle\caches\transforms-3\d7616e828a60d0846c3c25c004650cd8\transformed\navigation-ui-2.7.4\AndroidManifest.xml:17:1-22:12
MERGED from [androidx.navigation:navigation-runtime-ktx:2.7.4] C:\Users\christian.gonzalez\.gradle\caches\transforms-3\dfe4ccb6aa3f6255d109602dbe99ad6c\transformed\navigation-runtime-ktx-2.7.4\AndroidManifest.xml:2:1-7:12
MERGED from [androidx.navigation:navigation-ui-ktx:2.7.4] C:\Users\christian.gonzalez\.gradle\caches\transforms-3\3c55a422becb603c7dfddd58535c33b2\transformed\navigation-ui-ktx-2.7.4\AndroidManifest.xml:2:1-7:12
MERGED from [androidx.navigation:navigation-fragment-ktx:2.7.4] C:\Users\christian.gonzalez\.gradle\caches\transforms-3\29b44b2a84b77e83c1a57fba496b3ee1\transformed\navigation-fragment-ktx-2.7.4\AndroidManifest.xml:2:1-7:12
MERGED from [androidx.navigation:navigation-fragment:2.7.4] C:\Users\christian.gonzalez\.gradle\caches\transforms-3\053b3bba62c3b650a6e9d23415d968e8\transformed\navigation-fragment-2.7.4\AndroidManifest.xml:17:1-22:12
MERGED from [com.google.android.material:material:1.10.0] C:\Users\christian.gonzalez\.gradle\caches\transforms-3\0abf6e340a3dfea2c5618538adf769a6\transformed\material-1.10.0\AndroidManifest.xml:17:1-24:12
MERGED from [androidx.constraintlayout:constraintlayout:2.1.4] C:\Users\christian.gonzalez\.gradle\caches\transforms-3\d343a1425f9a0bdc65fe0b58e6f584b5\transformed\constraintlayout-2.1.4\AndroidManifest.xml:2:1-11:12
MERGED from [androidx.appcompat:appcompat-resources:1.6.1] C:\Users\christian.gonzalez\.gradle\caches\transforms-3\af1e57437438128351be9211774a3039\transformed\appcompat-resources-1.6.1\AndroidManifest.xml:17:1-22:12
MERGED from [androidx.appcompat:appcompat:1.6.1] C:\Users\christian.gonzalez\.gradle\caches\transforms-3\88a1fa2a64f8ef99a88c607cb391e7e3\transformed\appcompat-1.6.1\AndroidManifest.xml:17:1-22:12
MERGED from [androidx.viewpager2:viewpager2:1.0.0] C:\Users\christian.gonzalez\.gradle\caches\transforms-3\fb970570ce3e36157c3203ed06b14f99\transformed\viewpager2-1.0.0\AndroidManifest.xml:17:1-24:12
MERGED from [androidx.fragment:fragment:1.6.0] C:\Users\christian.gonzalez\.gradle\caches\transforms-3\70b0b4bbc8782894e999722652102cfe\transformed\fragment-1.6.0\AndroidManifest.xml:17:1-22:12
MERGED from [androidx.fragment:fragment-ktx:1.6.0] C:\Users\christian.gonzalez\.gradle\caches\transforms-3\e4a6096e25d120931648467988f75e4c\transformed\fragment-ktx-1.6.0\AndroidManifest.xml:17:1-22:12
MERGED from [androidx.activity:activity:1.8.0] C:\Users\christian.gonzalez\.gradle\caches\transforms-3\9d9bf10774032b02799304deaa3e779d\transformed\activity-1.8.0\AndroidManifest.xml:17:1-22:12
MERGED from [androidx.activity:activity-ktx:1.8.0] C:\Users\christian.gonzalez\.gradle\caches\transforms-3\d6d9d49adcf22ab405181fe4f20b7760\transformed\activity-ktx-1.8.0\AndroidManifest.xml:2:1-7:12
MERGED from [androidx.dynamicanimation:dynamicanimation:1.0.0] C:\Users\christian.gonzalez\.gradle\caches\transforms-3\d6995bc9c71a7dca2914f79c86bc1a1e\transformed\dynamicanimation-1.0.0\AndroidManifest.xml:17:1-22:12
MERGED from [androidx.legacy:legacy-support-core-utils:1.0.0] C:\Users\christian.gonzalez\.gradle\caches\transforms-3\0f240b6533d85fbce6cf476d9a0979b0\transformed\legacy-support-core-utils-1.0.0\AndroidManifest.xml:17:1-22:12
MERGED from [androidx.loader:loader:1.0.0] C:\Users\christian.gonzalez\.gradle\caches\transforms-3\7aa12eca453b89891a08eaf80c8b0d49\transformed\loader-1.0.0\AndroidManifest.xml:17:1-22:12
MERGED from [androidx.savedstate:savedstate-ktx:1.2.1] C:\Users\christian.gonzalez\.gradle\caches\transforms-3\9565c54a0a4b177404c0c4fe1946df29\transformed\savedstate-ktx-1.2.1\AndroidManifest.xml:17:1-22:12
MERGED from [androidx.emoji2:emoji2-views-helper:1.2.0] C:\Users\christian.gonzalez\.gradle\caches\transforms-3\1481f31b8c33a0d46b2995b3b3626627\transformed\emoji2-views-helper-1.2.0\AndroidManifest.xml:2:1-7:12
MERGED from [androidx.emoji2:emoji2:1.2.0] C:\Users\christian.gonzalez\.gradle\caches\transforms-3\ccc5c26e5bb3e1cb9a5d09d5c7c63d91\transformed\emoji2-1.2.0\AndroidManifest.xml:17:1-35:12
MERGED from [androidx.core:core-ktx:1.12.0] C:\Users\christian.gonzalez\.gradle\caches\transforms-3\4c4ec220bfeb77893f0f062d2ce937ba\transformed\core-ktx-1.12.0\AndroidManifest.xml:2:1-7:12
MERGED from [androidx.drawerlayout:drawerlayout:1.1.1] C:\Users\christian.gonzalez\.gradle\caches\transforms-3\dfb2ff19948a683325aed74ffbe3fa9e\transformed\drawerlayout-1.1.1\AndroidManifest.xml:17:1-24:12
MERGED from [androidx.coordinatorlayout:coordinatorlayout:1.1.0] C:\Users\christian.gonzalez\.gradle\caches\transforms-3\a1bcb2a7d4716d936d3dc3ad71bd0526\transformed\coordinatorlayout-1.1.0\AndroidManifest.xml:17:1-24:12
MERGED from [androidx.vectordrawable:vectordrawable-animated:1.1.0] C:\Users\christian.gonzalez\.gradle\caches\transforms-3\2e06bf56dd5ce99fba3173a6546433a3\transformed\vectordrawable-animated-1.1.0\AndroidManifest.xml:17:1-24:12
MERGED from [androidx.vectordrawable:vectordrawable:1.1.0] C:\Users\christian.gonzalez\.gradle\caches\transforms-3\37e2d43e96abd5a0424791ea057e3f34\transformed\vectordrawable-1.1.0\AndroidManifest.xml:17:1-24:12
MERGED from [androidx.recyclerview:recyclerview:1.1.0] C:\Users\christian.gonzalez\.gradle\caches\transforms-3\e8bc6fe03986d35dd0687c15a5046174\transformed\recyclerview-1.1.0\AndroidManifest.xml:17:1-24:12
MERGED from [androidx.slidingpanelayout:slidingpanelayout:1.2.0] C:\Users\christian.gonzalez\.gradle\caches\transforms-3\8d2dd57b99f63f0a767030752b8a06f4\transformed\slidingpanelayout-1.2.0\AndroidManifest.xml:17:1-24:12
MERGED from [androidx.viewpager:viewpager:1.0.0] C:\Users\christian.gonzalez\.gradle\caches\transforms-3\ac0e51fc4a774b2973d88283e6883404\transformed\viewpager-1.0.0\AndroidManifest.xml:17:1-22:12
MERGED from [androidx.customview:customview:1.1.0] C:\Users\christian.gonzalez\.gradle\caches\transforms-3\c2532d7bd85b4b5befb2a9ba947509fa\transformed\customview-1.1.0\AndroidManifest.xml:17:1-24:12
MERGED from [androidx.transition:transition:1.4.1] C:\Users\christian.gonzalez\.gradle\caches\transforms-3\c7ff29c49e7926b7643c8a774e2b2ddc\transformed\transition-1.4.1\AndroidManifest.xml:17:1-24:12
MERGED from [androidx.window:window:1.0.0] C:\Users\christian.gonzalez\.gradle\caches\transforms-3\a7f0fa44cb99c9df6ab216d5b32820ad\transformed\window-1.0.0\AndroidManifest.xml:17:1-33:12
MERGED from [androidx.core:core:1.12.0] C:\Users\christian.gonzalez\.gradle\caches\transforms-3\282f088dc5324e3f79102f32fd36467d\transformed\core-1.12.0\AndroidManifest.xml:17:1-30:12
MERGED from [androidx.lifecycle:lifecycle-runtime:2.6.2] C:\Users\christian.gonzalez\.gradle\caches\transforms-3\b4dfa295830efae872552f8c7f6d9aa1\transformed\lifecycle-runtime-2.6.2\AndroidManifest.xml:2:1-7:12
MERGED from [androidx.lifecycle:lifecycle-process:2.6.2] C:\Users\christian.gonzalez\.gradle\caches\transforms-3\856e6a9ea9ca9f70cfb5fcebe521bd45\transformed\lifecycle-process-2.6.2\AndroidManifest.xml:17:1-35:12
MERGED from [androidx.lifecycle:lifecycle-livedata-core-ktx:2.6.2] C:\Users\christian.gonzalez\.gradle\caches\transforms-3\2b38e3d363e3e9a955eafb3ba4d69c5f\transformed\lifecycle-livedata-core-ktx-2.6.2\AndroidManifest.xml:17:1-22:12
MERGED from [androidx.lifecycle:lifecycle-livedata-core:2.6.2] C:\Users\christian.gonzalez\.gradle\caches\transforms-3\223525bb9b80667f3c3e9ea89cd72e64\transformed\lifecycle-livedata-core-2.6.2\AndroidManifest.xml:17:1-22:12
MERGED from [androidx.lifecycle:lifecycle-livedata:2.6.2] C:\Users\christian.gonzalez\.gradle\caches\transforms-3\7be82aef5a6f494ea44e3dc99d3f0b65\transformed\lifecycle-livedata-2.6.2\AndroidManifest.xml:17:1-22:12
MERGED from [androidx.lifecycle:lifecycle-viewmodel-savedstate:2.6.2] C:\Users\christian.gonzalez\.gradle\caches\transforms-3\189c13f203e85c80a8594fea586dad68\transformed\lifecycle-viewmodel-savedstate-2.6.2\AndroidManifest.xml:17:1-22:12
MERGED from [androidx.savedstate:savedstate:1.2.1] C:\Users\christian.gonzalez\.gradle\caches\transforms-3\e8b061d150240561f93cdb450fcd06f8\transformed\savedstate-1.2.1\AndroidManifest.xml:17:1-22:12
MERGED from [androidx.lifecycle:lifecycle-viewmodel:2.6.2] C:\Users\christian.gonzalez\.gradle\caches\transforms-3\059a3633a6b07ffe349d81ba992c1f57\transformed\lifecycle-viewmodel-2.6.2\AndroidManifest.xml:17:1-22:12
MERGED from [androidx.lifecycle:lifecycle-runtime-ktx:2.6.2] C:\Users\christian.gonzalez\.gradle\caches\transforms-3\069008b2e63b2dec2a4a247571838ec8\transformed\lifecycle-runtime-ktx-2.6.2\AndroidManifest.xml:17:1-22:12
MERGED from [androidx.lifecycle:lifecycle-viewmodel-ktx:2.6.2] C:\Users\christian.gonzalez\.gradle\caches\transforms-3\cd140c2b9e95caed0252d8c87a091daa\transformed\lifecycle-viewmodel-ktx-2.6.2\AndroidManifest.xml:17:1-22:12
MERGED from [com.squareup.picasso:picasso:2.71828] C:\Users\christian.gonzalez\.gradle\caches\transforms-3\a0ca321ee6b82c214912340481c5a4e3\transformed\picasso-2.71828\AndroidManifest.xml:2:1-14:12
MERGED from [com.facebook.shimmer:shimmer:0.5.0] C:\Users\christian.gonzalez\.gradle\caches\transforms-3\ec3b398bc556c87d12f7983d5cb6ded0\transformed\shimmer-0.5.0\AndroidManifest.xml:2:1-7:12
MERGED from [androidx.cursoradapter:cursoradapter:1.0.0] C:\Users\christian.gonzalez\.gradle\caches\transforms-3\21118ada5df6c79b12895780d89c985d\transformed\cursoradapter-1.0.0\AndroidManifest.xml:17:1-22:12
MERGED from [androidx.cardview:cardview:1.0.0] C:\Users\christian.gonzalez\.gradle\caches\transforms-3\965c1b1f39af8b8b759198589a3f6bc9\transformed\cardview-1.0.0\AndroidManifest.xml:17:1-22:12
MERGED from [androidx.interpolator:interpolator:1.0.0] C:\Users\christian.gonzalez\.gradle\caches\transforms-3\56202021c800ca8022ad705c397ddb93\transformed\interpolator-1.0.0\AndroidManifest.xml:17:1-22:12
MERGED from [androidx.versionedparcelable:versionedparcelable:1.1.1] C:\Users\christian.gonzalez\.gradle\caches\transforms-3\c4f88e41234ce4650a868e012aa83bd3\transformed\versionedparcelable-1.1.1\AndroidManifest.xml:17:1-27:12
MERGED from [androidx.profileinstaller:profileinstaller:1.3.0] C:\Users\christian.gonzalez\.gradle\caches\transforms-3\7b9ff34379420acf1c39fbeb005fd97c\transformed\profileinstaller-1.3.0\AndroidManifest.xml:17:1-55:12
MERGED from [androidx.startup:startup-runtime:1.1.1] C:\Users\christian.gonzalez\.gradle\caches\transforms-3\d867123f8c387ff3f72116c3aac48761\transformed\startup-runtime-1.1.1\AndroidManifest.xml:17:1-33:12
MERGED from [androidx.tracing:tracing:1.0.0] C:\Users\christian.gonzalez\.gradle\caches\transforms-3\fc64f11a8b3b25d13443637a07881bd1\transformed\tracing-1.0.0\AndroidManifest.xml:17:1-24:12
MERGED from [androidx.documentfile:documentfile:1.0.0] C:\Users\christian.gonzalez\.gradle\caches\transforms-3\6e2ea4b8841a6d0e905140cd46371095\transformed\documentfile-1.0.0\AndroidManifest.xml:17:1-22:12
MERGED from [androidx.localbroadcastmanager:localbroadcastmanager:1.0.0] C:\Users\christian.gonzalez\.gradle\caches\transforms-3\9215affb09f2d279927e775b39c01829\transformed\localbroadcastmanager-1.0.0\AndroidManifest.xml:17:1-22:12
MERGED from [androidx.print:print:1.0.0] C:\Users\christian.gonzalez\.gradle\caches\transforms-3\2561195ebce79cce08ed37728f245941\transformed\print-1.0.0\AndroidManifest.xml:17:1-22:12
MERGED from [androidx.arch.core:core-runtime:2.2.0] C:\Users\christian.gonzalez\.gradle\caches\transforms-3\95b11a03fc27406295c23f57717daf0b\transformed\core-runtime-2.2.0\AndroidManifest.xml:17:1-22:12
MERGED from [androidx.annotation:annotation-experimental:1.3.0] C:\Users\christian.gonzalez\.gradle\caches\transforms-3\c444e18959178652a477375f04dee02f\transformed\annotation-experimental-1.3.0\AndroidManifest.xml:17:1-22:12
MERGED from [com.android.support:exifinterface:27.1.0] C:\Users\christian.gonzalez\.gradle\caches\transforms-3\3fa5c4d2c9719864194534c84f98ee9e\transformed\exifinterface-27.1.0\AndroidManifest.xml:17:1-22:12
INJECTED from C:\Users\christian.gonzalez\Documents\APP_Android\ITServices\DropshippingMobileVIP\app\src\main\AndroidManifest.xml:2:1-28:12
INJECTED from C:\Users\christian.gonzalez\Documents\APP_Android\ITServices\DropshippingMobileVIP\app\src\main\AndroidManifest.xml:2:1-28:12
INJECTED from C:\Users\christian.gonzalez\Documents\APP_Android\ITServices\DropshippingMobileVIP\app\src\main\AndroidManifest.xml:2:1-28:12
	package
		INJECTED from C:\Users\christian.gonzalez\Documents\APP_Android\ITServices\DropshippingMobileVIP\app\src\main\AndroidManifest.xml
		ADDED from C:\Users\christian.gonzalez\Documents\APP_Android\ITServices\DropshippingMobileVIP\app\src\main\AndroidManifest.xml:2:1-28:12
		INJECTED from C:\Users\christian.gonzalez\Documents\APP_Android\ITServices\DropshippingMobileVIP\app\src\main\AndroidManifest.xml
	android:versionName
		INJECTED from C:\Users\christian.gonzalez\Documents\APP_Android\ITServices\DropshippingMobileVIP\app\src\main\AndroidManifest.xml
		ADDED from C:\Users\christian.gonzalez\Documents\APP_Android\ITServices\DropshippingMobileVIP\app\src\main\AndroidManifest.xml:2:1-28:12
		INJECTED from C:\Users\christian.gonzalez\Documents\APP_Android\ITServices\DropshippingMobileVIP\app\src\main\AndroidManifest.xml
	xmlns:tools
		ADDED from C:\Users\christian.gonzalez\Documents\APP_Android\ITServices\DropshippingMobileVIP\app\src\main\AndroidManifest.xml:3:5-51
	android:versionCode
		INJECTED from C:\Users\christian.gonzalez\Documents\APP_Android\ITServices\DropshippingMobileVIP\app\src\main\AndroidManifest.xml
		ADDED from C:\Users\christian.gonzalez\Documents\APP_Android\ITServices\DropshippingMobileVIP\app\src\main\AndroidManifest.xml:2:1-28:12
		INJECTED from C:\Users\christian.gonzalez\Documents\APP_Android\ITServices\DropshippingMobileVIP\app\src\main\AndroidManifest.xml
	xmlns:android
		ADDED from C:\Users\christian.gonzalez\Documents\APP_Android\ITServices\DropshippingMobileVIP\app\src\main\AndroidManifest.xml:2:11-69
uses-permission#android.permission.INTERNET
ADDED from C:\Users\christian.gonzalez\Documents\APP_Android\ITServices\DropshippingMobileVIP\app\src\main\AndroidManifest.xml:5:5-67
	android:name
		ADDED from C:\Users\christian.gonzalez\Documents\APP_Android\ITServices\DropshippingMobileVIP\app\src\main\AndroidManifest.xml:5:22-64
application
ADDED from C:\Users\christian.gonzalez\Documents\APP_Android\ITServices\DropshippingMobileVIP\app\src\main\AndroidManifest.xml:7:5-26:19
MERGED from [com.google.android.material:material:1.10.0] C:\Users\christian.gonzalez\.gradle\caches\transforms-3\0abf6e340a3dfea2c5618538adf769a6\transformed\material-1.10.0\AndroidManifest.xml:22:5-20
MERGED from [com.google.android.material:material:1.10.0] C:\Users\christian.gonzalez\.gradle\caches\transforms-3\0abf6e340a3dfea2c5618538adf769a6\transformed\material-1.10.0\AndroidManifest.xml:22:5-20
MERGED from [androidx.constraintlayout:constraintlayout:2.1.4] C:\Users\christian.gonzalez\.gradle\caches\transforms-3\d343a1425f9a0bdc65fe0b58e6f584b5\transformed\constraintlayout-2.1.4\AndroidManifest.xml:9:5-20
MERGED from [androidx.constraintlayout:constraintlayout:2.1.4] C:\Users\christian.gonzalez\.gradle\caches\transforms-3\d343a1425f9a0bdc65fe0b58e6f584b5\transformed\constraintlayout-2.1.4\AndroidManifest.xml:9:5-20
MERGED from [androidx.emoji2:emoji2:1.2.0] C:\Users\christian.gonzalez\.gradle\caches\transforms-3\ccc5c26e5bb3e1cb9a5d09d5c7c63d91\transformed\emoji2-1.2.0\AndroidManifest.xml:23:5-33:19
MERGED from [androidx.emoji2:emoji2:1.2.0] C:\Users\christian.gonzalez\.gradle\caches\transforms-3\ccc5c26e5bb3e1cb9a5d09d5c7c63d91\transformed\emoji2-1.2.0\AndroidManifest.xml:23:5-33:19
MERGED from [androidx.window:window:1.0.0] C:\Users\christian.gonzalez\.gradle\caches\transforms-3\a7f0fa44cb99c9df6ab216d5b32820ad\transformed\window-1.0.0\AndroidManifest.xml:24:5-31:19
MERGED from [androidx.window:window:1.0.0] C:\Users\christian.gonzalez\.gradle\caches\transforms-3\a7f0fa44cb99c9df6ab216d5b32820ad\transformed\window-1.0.0\AndroidManifest.xml:24:5-31:19
MERGED from [androidx.core:core:1.12.0] C:\Users\christian.gonzalez\.gradle\caches\transforms-3\282f088dc5324e3f79102f32fd36467d\transformed\core-1.12.0\AndroidManifest.xml:28:5-89
MERGED from [androidx.core:core:1.12.0] C:\Users\christian.gonzalez\.gradle\caches\transforms-3\282f088dc5324e3f79102f32fd36467d\transformed\core-1.12.0\AndroidManifest.xml:28:5-89
MERGED from [androidx.lifecycle:lifecycle-process:2.6.2] C:\Users\christian.gonzalez\.gradle\caches\transforms-3\856e6a9ea9ca9f70cfb5fcebe521bd45\transformed\lifecycle-process-2.6.2\AndroidManifest.xml:23:5-33:19
MERGED from [androidx.lifecycle:lifecycle-process:2.6.2] C:\Users\christian.gonzalez\.gradle\caches\transforms-3\856e6a9ea9ca9f70cfb5fcebe521bd45\transformed\lifecycle-process-2.6.2\AndroidManifest.xml:23:5-33:19
MERGED from [com.squareup.picasso:picasso:2.71828] C:\Users\christian.gonzalez\.gradle\caches\transforms-3\a0ca321ee6b82c214912340481c5a4e3\transformed\picasso-2.71828\AndroidManifest.xml:7:5-12:19
MERGED from [com.squareup.picasso:picasso:2.71828] C:\Users\christian.gonzalez\.gradle\caches\transforms-3\a0ca321ee6b82c214912340481c5a4e3\transformed\picasso-2.71828\AndroidManifest.xml:7:5-12:19
MERGED from [androidx.versionedparcelable:versionedparcelable:1.1.1] C:\Users\christian.gonzalez\.gradle\caches\transforms-3\c4f88e41234ce4650a868e012aa83bd3\transformed\versionedparcelable-1.1.1\AndroidManifest.xml:24:5-25:19
MERGED from [androidx.versionedparcelable:versionedparcelable:1.1.1] C:\Users\christian.gonzalez\.gradle\caches\transforms-3\c4f88e41234ce4650a868e012aa83bd3\transformed\versionedparcelable-1.1.1\AndroidManifest.xml:24:5-25:19
MERGED from [androidx.profileinstaller:profileinstaller:1.3.0] C:\Users\christian.gonzalez\.gradle\caches\transforms-3\7b9ff34379420acf1c39fbeb005fd97c\transformed\profileinstaller-1.3.0\AndroidManifest.xml:23:5-53:19
MERGED from [androidx.profileinstaller:profileinstaller:1.3.0] C:\Users\christian.gonzalez\.gradle\caches\transforms-3\7b9ff34379420acf1c39fbeb005fd97c\transformed\profileinstaller-1.3.0\AndroidManifest.xml:23:5-53:19
MERGED from [androidx.startup:startup-runtime:1.1.1] C:\Users\christian.gonzalez\.gradle\caches\transforms-3\d867123f8c387ff3f72116c3aac48761\transformed\startup-runtime-1.1.1\AndroidManifest.xml:25:5-31:19
MERGED from [androidx.startup:startup-runtime:1.1.1] C:\Users\christian.gonzalez\.gradle\caches\transforms-3\d867123f8c387ff3f72116c3aac48761\transformed\startup-runtime-1.1.1\AndroidManifest.xml:25:5-31:19
	android:appComponentFactory
		ADDED from [androidx.core:core:1.12.0] C:\Users\christian.gonzalez\.gradle\caches\transforms-3\282f088dc5324e3f79102f32fd36467d\transformed\core-1.12.0\AndroidManifest.xml:28:18-86
	android:supportsRtl
		ADDED from C:\Users\christian.gonzalez\Documents\APP_Android\ITServices\DropshippingMobileVIP\app\src\main\AndroidManifest.xml:14:9-35
	android:label
		ADDED from C:\Users\christian.gonzalez\Documents\APP_Android\ITServices\DropshippingMobileVIP\app\src\main\AndroidManifest.xml:12:9-41
	android:fullBackupContent
		ADDED from C:\Users\christian.gonzalez\Documents\APP_Android\ITServices\DropshippingMobileVIP\app\src\main\AndroidManifest.xml:10:9-54
	android:roundIcon
		ADDED from C:\Users\christian.gonzalez\Documents\APP_Android\ITServices\DropshippingMobileVIP\app\src\main\AndroidManifest.xml:13:9-54
	tools:targetApi
		ADDED from C:\Users\christian.gonzalez\Documents\APP_Android\ITServices\DropshippingMobileVIP\app\src\main\AndroidManifest.xml:16:9-29
	android:icon
		ADDED from C:\Users\christian.gonzalez\Documents\APP_Android\ITServices\DropshippingMobileVIP\app\src\main\AndroidManifest.xml:11:9-43
	android:allowBackup
		ADDED from C:\Users\christian.gonzalez\Documents\APP_Android\ITServices\DropshippingMobileVIP\app\src\main\AndroidManifest.xml:8:9-35
	android:theme
		ADDED from C:\Users\christian.gonzalez\Documents\APP_Android\ITServices\DropshippingMobileVIP\app\src\main\AndroidManifest.xml:15:9-48
	android:dataExtractionRules
		ADDED from C:\Users\christian.gonzalez\Documents\APP_Android\ITServices\DropshippingMobileVIP\app\src\main\AndroidManifest.xml:9:9-65
activity#mx.edu.uthermosillo.a09311065.ITServices.ui.views.activities.MainActivity
ADDED from C:\Users\christian.gonzalez\Documents\APP_Android\ITServices\DropshippingMobileVIP\app\src\main\AndroidManifest.xml:17:9-25:20
	android:exported
		ADDED from C:\Users\christian.gonzalez\Documents\APP_Android\ITServices\DropshippingMobileVIP\app\src\main\AndroidManifest.xml:19:13-36
	android:name
		ADDED from C:\Users\christian.gonzalez\Documents\APP_Android\ITServices\DropshippingMobileVIP\app\src\main\AndroidManifest.xml:18:13-61
intent-filter#action:name:android.intent.action.MAIN+category:name:android.intent.category.LAUNCHER
ADDED from C:\Users\christian.gonzalez\Documents\APP_Android\ITServices\DropshippingMobileVIP\app\src\main\AndroidManifest.xml:20:13-24:29
action#android.intent.action.MAIN
ADDED from C:\Users\christian.gonzalez\Documents\APP_Android\ITServices\DropshippingMobileVIP\app\src\main\AndroidManifest.xml:21:17-69
	android:name
		ADDED from C:\Users\christian.gonzalez\Documents\APP_Android\ITServices\DropshippingMobileVIP\app\src\main\AndroidManifest.xml:21:25-66
category#android.intent.category.LAUNCHER
ADDED from C:\Users\christian.gonzalez\Documents\APP_Android\ITServices\DropshippingMobileVIP\app\src\main\AndroidManifest.xml:23:17-77
	android:name
		ADDED from C:\Users\christian.gonzalez\Documents\APP_Android\ITServices\DropshippingMobileVIP\app\src\main\AndroidManifest.xml:23:27-74
uses-sdk
INJECTED from C:\Users\christian.gonzalez\Documents\APP_Android\ITServices\DropshippingMobileVIP\app\src\main\AndroidManifest.xml reason: use-sdk injection requested
INJECTED from C:\Users\christian.gonzalez\Documents\APP_Android\ITServices\DropshippingMobileVIP\app\src\main\AndroidManifest.xml
INJECTED from C:\Users\christian.gonzalez\Documents\APP_Android\ITServices\DropshippingMobileVIP\app\src\main\AndroidManifest.xml
MERGED from [androidx.databinding:viewbinding:8.0.1] C:\Users\christian.gonzalez\.gradle\caches\transforms-3\7b698683d3435756477c453de44fcab7\transformed\viewbinding-8.0.1\AndroidManifest.xml:5:5-44
MERGED from [androidx.databinding:viewbinding:8.0.1] C:\Users\christian.gonzalez\.gradle\caches\transforms-3\7b698683d3435756477c453de44fcab7\transformed\viewbinding-8.0.1\AndroidManifest.xml:5:5-44
MERGED from [androidx.navigation:navigation-common:2.7.4] C:\Users\christian.gonzalez\.gradle\caches\transforms-3\786ede87ef6801004c84ac56b42ec12c\transformed\navigation-common-2.7.4\AndroidManifest.xml:20:5-44
MERGED from [androidx.navigation:navigation-common:2.7.4] C:\Users\christian.gonzalez\.gradle\caches\transforms-3\786ede87ef6801004c84ac56b42ec12c\transformed\navigation-common-2.7.4\AndroidManifest.xml:20:5-44
MERGED from [androidx.navigation:navigation-common-ktx:2.7.4] C:\Users\christian.gonzalez\.gradle\caches\transforms-3\fd73388e4c9e4da90cf82712ae84402e\transformed\navigation-common-ktx-2.7.4\AndroidManifest.xml:5:5-44
MERGED from [androidx.navigation:navigation-common-ktx:2.7.4] C:\Users\christian.gonzalez\.gradle\caches\transforms-3\fd73388e4c9e4da90cf82712ae84402e\transformed\navigation-common-ktx-2.7.4\AndroidManifest.xml:5:5-44
MERGED from [androidx.navigation:navigation-runtime:2.7.4] C:\Users\christian.gonzalez\.gradle\caches\transforms-3\cea9b79e2efa27b6a65af080df15642a\transformed\navigation-runtime-2.7.4\AndroidManifest.xml:20:5-44
MERGED from [androidx.navigation:navigation-runtime:2.7.4] C:\Users\christian.gonzalez\.gradle\caches\transforms-3\cea9b79e2efa27b6a65af080df15642a\transformed\navigation-runtime-2.7.4\AndroidManifest.xml:20:5-44
MERGED from [androidx.navigation:navigation-ui:2.7.4] C:\Users\christian.gonzalez\.gradle\caches\transforms-3\d7616e828a60d0846c3c25c004650cd8\transformed\navigation-ui-2.7.4\AndroidManifest.xml:20:5-44
MERGED from [androidx.navigation:navigation-ui:2.7.4] C:\Users\christian.gonzalez\.gradle\caches\transforms-3\d7616e828a60d0846c3c25c004650cd8\transformed\navigation-ui-2.7.4\AndroidManifest.xml:20:5-44
MERGED from [androidx.navigation:navigation-runtime-ktx:2.7.4] C:\Users\christian.gonzalez\.gradle\caches\transforms-3\dfe4ccb6aa3f6255d109602dbe99ad6c\transformed\navigation-runtime-ktx-2.7.4\AndroidManifest.xml:5:5-44
MERGED from [androidx.navigation:navigation-runtime-ktx:2.7.4] C:\Users\christian.gonzalez\.gradle\caches\transforms-3\dfe4ccb6aa3f6255d109602dbe99ad6c\transformed\navigation-runtime-ktx-2.7.4\AndroidManifest.xml:5:5-44
MERGED from [androidx.navigation:navigation-ui-ktx:2.7.4] C:\Users\christian.gonzalez\.gradle\caches\transforms-3\3c55a422becb603c7dfddd58535c33b2\transformed\navigation-ui-ktx-2.7.4\AndroidManifest.xml:5:5-44
MERGED from [androidx.navigation:navigation-ui-ktx:2.7.4] C:\Users\christian.gonzalez\.gradle\caches\transforms-3\3c55a422becb603c7dfddd58535c33b2\transformed\navigation-ui-ktx-2.7.4\AndroidManifest.xml:5:5-44
MERGED from [androidx.navigation:navigation-fragment-ktx:2.7.4] C:\Users\christian.gonzalez\.gradle\caches\transforms-3\29b44b2a84b77e83c1a57fba496b3ee1\transformed\navigation-fragment-ktx-2.7.4\AndroidManifest.xml:5:5-44
MERGED from [androidx.navigation:navigation-fragment-ktx:2.7.4] C:\Users\christian.gonzalez\.gradle\caches\transforms-3\29b44b2a84b77e83c1a57fba496b3ee1\transformed\navigation-fragment-ktx-2.7.4\AndroidManifest.xml:5:5-44
MERGED from [androidx.navigation:navigation-fragment:2.7.4] C:\Users\christian.gonzalez\.gradle\caches\transforms-3\053b3bba62c3b650a6e9d23415d968e8\transformed\navigation-fragment-2.7.4\AndroidManifest.xml:20:5-44
MERGED from [androidx.navigation:navigation-fragment:2.7.4] C:\Users\christian.gonzalez\.gradle\caches\transforms-3\053b3bba62c3b650a6e9d23415d968e8\transformed\navigation-fragment-2.7.4\AndroidManifest.xml:20:5-44
MERGED from [com.google.android.material:material:1.10.0] C:\Users\christian.gonzalez\.gradle\caches\transforms-3\0abf6e340a3dfea2c5618538adf769a6\transformed\material-1.10.0\AndroidManifest.xml:20:5-44
MERGED from [com.google.android.material:material:1.10.0] C:\Users\christian.gonzalez\.gradle\caches\transforms-3\0abf6e340a3dfea2c5618538adf769a6\transformed\material-1.10.0\AndroidManifest.xml:20:5-44
MERGED from [androidx.constraintlayout:constraintlayout:2.1.4] C:\Users\christian.gonzalez\.gradle\caches\transforms-3\d343a1425f9a0bdc65fe0b58e6f584b5\transformed\constraintlayout-2.1.4\AndroidManifest.xml:5:5-7:41
MERGED from [androidx.constraintlayout:constraintlayout:2.1.4] C:\Users\christian.gonzalez\.gradle\caches\transforms-3\d343a1425f9a0bdc65fe0b58e6f584b5\transformed\constraintlayout-2.1.4\AndroidManifest.xml:5:5-7:41
MERGED from [androidx.appcompat:appcompat-resources:1.6.1] C:\Users\christian.gonzalez\.gradle\caches\transforms-3\af1e57437438128351be9211774a3039\transformed\appcompat-resources-1.6.1\AndroidManifest.xml:20:5-44
MERGED from [androidx.appcompat:appcompat-resources:1.6.1] C:\Users\christian.gonzalez\.gradle\caches\transforms-3\af1e57437438128351be9211774a3039\transformed\appcompat-resources-1.6.1\AndroidManifest.xml:20:5-44
MERGED from [androidx.appcompat:appcompat:1.6.1] C:\Users\christian.gonzalez\.gradle\caches\transforms-3\88a1fa2a64f8ef99a88c607cb391e7e3\transformed\appcompat-1.6.1\AndroidManifest.xml:20:5-44
MERGED from [androidx.appcompat:appcompat:1.6.1] C:\Users\christian.gonzalez\.gradle\caches\transforms-3\88a1fa2a64f8ef99a88c607cb391e7e3\transformed\appcompat-1.6.1\AndroidManifest.xml:20:5-44
MERGED from [androidx.viewpager2:viewpager2:1.0.0] C:\Users\christian.gonzalez\.gradle\caches\transforms-3\fb970570ce3e36157c3203ed06b14f99\transformed\viewpager2-1.0.0\AndroidManifest.xml:20:5-22:41
MERGED from [androidx.viewpager2:viewpager2:1.0.0] C:\Users\christian.gonzalez\.gradle\caches\transforms-3\fb970570ce3e36157c3203ed06b14f99\transformed\viewpager2-1.0.0\AndroidManifest.xml:20:5-22:41
MERGED from [androidx.fragment:fragment:1.6.0] C:\Users\christian.gonzalez\.gradle\caches\transforms-3\70b0b4bbc8782894e999722652102cfe\transformed\fragment-1.6.0\AndroidManifest.xml:20:5-44
MERGED from [androidx.fragment:fragment:1.6.0] C:\Users\christian.gonzalez\.gradle\caches\transforms-3\70b0b4bbc8782894e999722652102cfe\transformed\fragment-1.6.0\AndroidManifest.xml:20:5-44
MERGED from [androidx.fragment:fragment-ktx:1.6.0] C:\Users\christian.gonzalez\.gradle\caches\transforms-3\e4a6096e25d120931648467988f75e4c\transformed\fragment-ktx-1.6.0\AndroidManifest.xml:20:5-44
MERGED from [androidx.fragment:fragment-ktx:1.6.0] C:\Users\christian.gonzalez\.gradle\caches\transforms-3\e4a6096e25d120931648467988f75e4c\transformed\fragment-ktx-1.6.0\AndroidManifest.xml:20:5-44
MERGED from [androidx.activity:activity:1.8.0] C:\Users\christian.gonzalez\.gradle\caches\transforms-3\9d9bf10774032b02799304deaa3e779d\transformed\activity-1.8.0\AndroidManifest.xml:20:5-44
MERGED from [androidx.activity:activity:1.8.0] C:\Users\christian.gonzalez\.gradle\caches\transforms-3\9d9bf10774032b02799304deaa3e779d\transformed\activity-1.8.0\AndroidManifest.xml:20:5-44
MERGED from [androidx.activity:activity-ktx:1.8.0] C:\Users\christian.gonzalez\.gradle\caches\transforms-3\d6d9d49adcf22ab405181fe4f20b7760\transformed\activity-ktx-1.8.0\AndroidManifest.xml:5:5-44
MERGED from [androidx.activity:activity-ktx:1.8.0] C:\Users\christian.gonzalez\.gradle\caches\transforms-3\d6d9d49adcf22ab405181fe4f20b7760\transformed\activity-ktx-1.8.0\AndroidManifest.xml:5:5-44
MERGED from [androidx.dynamicanimation:dynamicanimation:1.0.0] C:\Users\christian.gonzalez\.gradle\caches\transforms-3\d6995bc9c71a7dca2914f79c86bc1a1e\transformed\dynamicanimation-1.0.0\AndroidManifest.xml:20:5-44
MERGED from [androidx.dynamicanimation:dynamicanimation:1.0.0] C:\Users\christian.gonzalez\.gradle\caches\transforms-3\d6995bc9c71a7dca2914f79c86bc1a1e\transformed\dynamicanimation-1.0.0\AndroidManifest.xml:20:5-44
MERGED from [androidx.legacy:legacy-support-core-utils:1.0.0] C:\Users\christian.gonzalez\.gradle\caches\transforms-3\0f240b6533d85fbce6cf476d9a0979b0\transformed\legacy-support-core-utils-1.0.0\AndroidManifest.xml:20:5-44
MERGED from [androidx.legacy:legacy-support-core-utils:1.0.0] C:\Users\christian.gonzalez\.gradle\caches\transforms-3\0f240b6533d85fbce6cf476d9a0979b0\transformed\legacy-support-core-utils-1.0.0\AndroidManifest.xml:20:5-44
MERGED from [androidx.loader:loader:1.0.0] C:\Users\christian.gonzalez\.gradle\caches\transforms-3\7aa12eca453b89891a08eaf80c8b0d49\transformed\loader-1.0.0\AndroidManifest.xml:20:5-44
MERGED from [androidx.loader:loader:1.0.0] C:\Users\christian.gonzalez\.gradle\caches\transforms-3\7aa12eca453b89891a08eaf80c8b0d49\transformed\loader-1.0.0\AndroidManifest.xml:20:5-44
MERGED from [androidx.savedstate:savedstate-ktx:1.2.1] C:\Users\christian.gonzalez\.gradle\caches\transforms-3\9565c54a0a4b177404c0c4fe1946df29\transformed\savedstate-ktx-1.2.1\AndroidManifest.xml:20:5-44
MERGED from [androidx.savedstate:savedstate-ktx:1.2.1] C:\Users\christian.gonzalez\.gradle\caches\transforms-3\9565c54a0a4b177404c0c4fe1946df29\transformed\savedstate-ktx-1.2.1\AndroidManifest.xml:20:5-44
MERGED from [androidx.emoji2:emoji2-views-helper:1.2.0] C:\Users\christian.gonzalez\.gradle\caches\transforms-3\1481f31b8c33a0d46b2995b3b3626627\transformed\emoji2-views-helper-1.2.0\AndroidManifest.xml:5:5-44
MERGED from [androidx.emoji2:emoji2-views-helper:1.2.0] C:\Users\christian.gonzalez\.gradle\caches\transforms-3\1481f31b8c33a0d46b2995b3b3626627\transformed\emoji2-views-helper-1.2.0\AndroidManifest.xml:5:5-44
MERGED from [androidx.emoji2:emoji2:1.2.0] C:\Users\christian.gonzalez\.gradle\caches\transforms-3\ccc5c26e5bb3e1cb9a5d09d5c7c63d91\transformed\emoji2-1.2.0\AndroidManifest.xml:21:5-44
MERGED from [androidx.emoji2:emoji2:1.2.0] C:\Users\christian.gonzalez\.gradle\caches\transforms-3\ccc5c26e5bb3e1cb9a5d09d5c7c63d91\transformed\emoji2-1.2.0\AndroidManifest.xml:21:5-44
MERGED from [androidx.core:core-ktx:1.12.0] C:\Users\christian.gonzalez\.gradle\caches\transforms-3\4c4ec220bfeb77893f0f062d2ce937ba\transformed\core-ktx-1.12.0\AndroidManifest.xml:5:5-44
MERGED from [androidx.core:core-ktx:1.12.0] C:\Users\christian.gonzalez\.gradle\caches\transforms-3\4c4ec220bfeb77893f0f062d2ce937ba\transformed\core-ktx-1.12.0\AndroidManifest.xml:5:5-44
MERGED from [androidx.drawerlayout:drawerlayout:1.1.1] C:\Users\christian.gonzalez\.gradle\caches\transforms-3\dfb2ff19948a683325aed74ffbe3fa9e\transformed\drawerlayout-1.1.1\AndroidManifest.xml:20:5-22:41
MERGED from [androidx.drawerlayout:drawerlayout:1.1.1] C:\Users\christian.gonzalez\.gradle\caches\transforms-3\dfb2ff19948a683325aed74ffbe3fa9e\transformed\drawerlayout-1.1.1\AndroidManifest.xml:20:5-22:41
MERGED from [androidx.coordinatorlayout:coordinatorlayout:1.1.0] C:\Users\christian.gonzalez\.gradle\caches\transforms-3\a1bcb2a7d4716d936d3dc3ad71bd0526\transformed\coordinatorlayout-1.1.0\AndroidManifest.xml:20:5-22:41
MERGED from [androidx.coordinatorlayout:coordinatorlayout:1.1.0] C:\Users\christian.gonzalez\.gradle\caches\transforms-3\a1bcb2a7d4716d936d3dc3ad71bd0526\transformed\coordinatorlayout-1.1.0\AndroidManifest.xml:20:5-22:41
MERGED from [androidx.vectordrawable:vectordrawable-animated:1.1.0] C:\Users\christian.gonzalez\.gradle\caches\transforms-3\2e06bf56dd5ce99fba3173a6546433a3\transformed\vectordrawable-animated-1.1.0\AndroidManifest.xml:20:5-22:41
MERGED from [androidx.vectordrawable:vectordrawable-animated:1.1.0] C:\Users\christian.gonzalez\.gradle\caches\transforms-3\2e06bf56dd5ce99fba3173a6546433a3\transformed\vectordrawable-animated-1.1.0\AndroidManifest.xml:20:5-22:41
MERGED from [androidx.vectordrawable:vectordrawable:1.1.0] C:\Users\christian.gonzalez\.gradle\caches\transforms-3\37e2d43e96abd5a0424791ea057e3f34\transformed\vectordrawable-1.1.0\AndroidManifest.xml:20:5-22:41
MERGED from [androidx.vectordrawable:vectordrawable:1.1.0] C:\Users\christian.gonzalez\.gradle\caches\transforms-3\37e2d43e96abd5a0424791ea057e3f34\transformed\vectordrawable-1.1.0\AndroidManifest.xml:20:5-22:41
MERGED from [androidx.recyclerview:recyclerview:1.1.0] C:\Users\christian.gonzalez\.gradle\caches\transforms-3\e8bc6fe03986d35dd0687c15a5046174\transformed\recyclerview-1.1.0\AndroidManifest.xml:20:5-22:41
MERGED from [androidx.recyclerview:recyclerview:1.1.0] C:\Users\christian.gonzalez\.gradle\caches\transforms-3\e8bc6fe03986d35dd0687c15a5046174\transformed\recyclerview-1.1.0\AndroidManifest.xml:20:5-22:41
MERGED from [androidx.slidingpanelayout:slidingpanelayout:1.2.0] C:\Users\christian.gonzalez\.gradle\caches\transforms-3\8d2dd57b99f63f0a767030752b8a06f4\transformed\slidingpanelayout-1.2.0\AndroidManifest.xml:20:5-22:41
MERGED from [androidx.slidingpanelayout:slidingpanelayout:1.2.0] C:\Users\christian.gonzalez\.gradle\caches\transforms-3\8d2dd57b99f63f0a767030752b8a06f4\transformed\slidingpanelayout-1.2.0\AndroidManifest.xml:20:5-22:41
MERGED from [androidx.viewpager:viewpager:1.0.0] C:\Users\christian.gonzalez\.gradle\caches\transforms-3\ac0e51fc4a774b2973d88283e6883404\transformed\viewpager-1.0.0\AndroidManifest.xml:20:5-44
MERGED from [androidx.viewpager:viewpager:1.0.0] C:\Users\christian.gonzalez\.gradle\caches\transforms-3\ac0e51fc4a774b2973d88283e6883404\transformed\viewpager-1.0.0\AndroidManifest.xml:20:5-44
MERGED from [androidx.customview:customview:1.1.0] C:\Users\christian.gonzalez\.gradle\caches\transforms-3\c2532d7bd85b4b5befb2a9ba947509fa\transformed\customview-1.1.0\AndroidManifest.xml:20:5-22:41
MERGED from [androidx.customview:customview:1.1.0] C:\Users\christian.gonzalez\.gradle\caches\transforms-3\c2532d7bd85b4b5befb2a9ba947509fa\transformed\customview-1.1.0\AndroidManifest.xml:20:5-22:41
MERGED from [androidx.transition:transition:1.4.1] C:\Users\christian.gonzalez\.gradle\caches\transforms-3\c7ff29c49e7926b7643c8a774e2b2ddc\transformed\transition-1.4.1\AndroidManifest.xml:20:5-22:41
MERGED from [androidx.transition:transition:1.4.1] C:\Users\christian.gonzalez\.gradle\caches\transforms-3\c7ff29c49e7926b7643c8a774e2b2ddc\transformed\transition-1.4.1\AndroidManifest.xml:20:5-22:41
MERGED from [androidx.window:window:1.0.0] C:\Users\christian.gonzalez\.gradle\caches\transforms-3\a7f0fa44cb99c9df6ab216d5b32820ad\transformed\window-1.0.0\AndroidManifest.xml:20:5-22:41
MERGED from [androidx.window:window:1.0.0] C:\Users\christian.gonzalez\.gradle\caches\transforms-3\a7f0fa44cb99c9df6ab216d5b32820ad\transformed\window-1.0.0\AndroidManifest.xml:20:5-22:41
MERGED from [androidx.core:core:1.12.0] C:\Users\christian.gonzalez\.gradle\caches\transforms-3\282f088dc5324e3f79102f32fd36467d\transformed\core-1.12.0\AndroidManifest.xml:20:5-44
MERGED from [androidx.core:core:1.12.0] C:\Users\christian.gonzalez\.gradle\caches\transforms-3\282f088dc5324e3f79102f32fd36467d\transformed\core-1.12.0\AndroidManifest.xml:20:5-44
MERGED from [androidx.lifecycle:lifecycle-runtime:2.6.2] C:\Users\christian.gonzalez\.gradle\caches\transforms-3\b4dfa295830efae872552f8c7f6d9aa1\transformed\lifecycle-runtime-2.6.2\AndroidManifest.xml:5:5-44
MERGED from [androidx.lifecycle:lifecycle-runtime:2.6.2] C:\Users\christian.gonzalez\.gradle\caches\transforms-3\b4dfa295830efae872552f8c7f6d9aa1\transformed\lifecycle-runtime-2.6.2\AndroidManifest.xml:5:5-44
MERGED from [androidx.lifecycle:lifecycle-process:2.6.2] C:\Users\christian.gonzalez\.gradle\caches\transforms-3\856e6a9ea9ca9f70cfb5fcebe521bd45\transformed\lifecycle-process-2.6.2\AndroidManifest.xml:21:5-44
MERGED from [androidx.lifecycle:lifecycle-process:2.6.2] C:\Users\christian.gonzalez\.gradle\caches\transforms-3\856e6a9ea9ca9f70cfb5fcebe521bd45\transformed\lifecycle-process-2.6.2\AndroidManifest.xml:21:5-44
MERGED from [androidx.lifecycle:lifecycle-livedata-core-ktx:2.6.2] C:\Users\christian.gonzalez\.gradle\caches\transforms-3\2b38e3d363e3e9a955eafb3ba4d69c5f\transformed\lifecycle-livedata-core-ktx-2.6.2\AndroidManifest.xml:20:5-44
MERGED from [androidx.lifecycle:lifecycle-livedata-core-ktx:2.6.2] C:\Users\christian.gonzalez\.gradle\caches\transforms-3\2b38e3d363e3e9a955eafb3ba4d69c5f\transformed\lifecycle-livedata-core-ktx-2.6.2\AndroidManifest.xml:20:5-44
MERGED from [androidx.lifecycle:lifecycle-livedata-core:2.6.2] C:\Users\christian.gonzalez\.gradle\caches\transforms-3\223525bb9b80667f3c3e9ea89cd72e64\transformed\lifecycle-livedata-core-2.6.2\AndroidManifest.xml:20:5-44
MERGED from [androidx.lifecycle:lifecycle-livedata-core:2.6.2] C:\Users\christian.gonzalez\.gradle\caches\transforms-3\223525bb9b80667f3c3e9ea89cd72e64\transformed\lifecycle-livedata-core-2.6.2\AndroidManifest.xml:20:5-44
MERGED from [androidx.lifecycle:lifecycle-livedata:2.6.2] C:\Users\christian.gonzalez\.gradle\caches\transforms-3\7be82aef5a6f494ea44e3dc99d3f0b65\transformed\lifecycle-livedata-2.6.2\AndroidManifest.xml:20:5-44
MERGED from [androidx.lifecycle:lifecycle-livedata:2.6.2] C:\Users\christian.gonzalez\.gradle\caches\transforms-3\7be82aef5a6f494ea44e3dc99d3f0b65\transformed\lifecycle-livedata-2.6.2\AndroidManifest.xml:20:5-44
MERGED from [androidx.lifecycle:lifecycle-viewmodel-savedstate:2.6.2] C:\Users\christian.gonzalez\.gradle\caches\transforms-3\189c13f203e85c80a8594fea586dad68\transformed\lifecycle-viewmodel-savedstate-2.6.2\AndroidManifest.xml:20:5-44
MERGED from [androidx.lifecycle:lifecycle-viewmodel-savedstate:2.6.2] C:\Users\christian.gonzalez\.gradle\caches\transforms-3\189c13f203e85c80a8594fea586dad68\transformed\lifecycle-viewmodel-savedstate-2.6.2\AndroidManifest.xml:20:5-44
MERGED from [androidx.savedstate:savedstate:1.2.1] C:\Users\christian.gonzalez\.gradle\caches\transforms-3\e8b061d150240561f93cdb450fcd06f8\transformed\savedstate-1.2.1\AndroidManifest.xml:20:5-44
MERGED from [androidx.savedstate:savedstate:1.2.1] C:\Users\christian.gonzalez\.gradle\caches\transforms-3\e8b061d150240561f93cdb450fcd06f8\transformed\savedstate-1.2.1\AndroidManifest.xml:20:5-44
MERGED from [androidx.lifecycle:lifecycle-viewmodel:2.6.2] C:\Users\christian.gonzalez\.gradle\caches\transforms-3\059a3633a6b07ffe349d81ba992c1f57\transformed\lifecycle-viewmodel-2.6.2\AndroidManifest.xml:20:5-44
MERGED from [androidx.lifecycle:lifecycle-viewmodel:2.6.2] C:\Users\christian.gonzalez\.gradle\caches\transforms-3\059a3633a6b07ffe349d81ba992c1f57\transformed\lifecycle-viewmodel-2.6.2\AndroidManifest.xml:20:5-44
MERGED from [androidx.lifecycle:lifecycle-runtime-ktx:2.6.2] C:\Users\christian.gonzalez\.gradle\caches\transforms-3\069008b2e63b2dec2a4a247571838ec8\transformed\lifecycle-runtime-ktx-2.6.2\AndroidManifest.xml:20:5-44
MERGED from [androidx.lifecycle:lifecycle-runtime-ktx:2.6.2] C:\Users\christian.gonzalez\.gradle\caches\transforms-3\069008b2e63b2dec2a4a247571838ec8\transformed\lifecycle-runtime-ktx-2.6.2\AndroidManifest.xml:20:5-44
MERGED from [androidx.lifecycle:lifecycle-viewmodel-ktx:2.6.2] C:\Users\christian.gonzalez\.gradle\caches\transforms-3\cd140c2b9e95caed0252d8c87a091daa\transformed\lifecycle-viewmodel-ktx-2.6.2\AndroidManifest.xml:20:5-44
MERGED from [androidx.lifecycle:lifecycle-viewmodel-ktx:2.6.2] C:\Users\christian.gonzalez\.gradle\caches\transforms-3\cd140c2b9e95caed0252d8c87a091daa\transformed\lifecycle-viewmodel-ktx-2.6.2\AndroidManifest.xml:20:5-44
MERGED from [com.squareup.picasso:picasso:2.71828] C:\Users\christian.gonzalez\.gradle\caches\transforms-3\a0ca321ee6b82c214912340481c5a4e3\transformed\picasso-2.71828\AndroidManifest.xml:5:5-44
MERGED from [com.squareup.picasso:picasso:2.71828] C:\Users\christian.gonzalez\.gradle\caches\transforms-3\a0ca321ee6b82c214912340481c5a4e3\transformed\picasso-2.71828\AndroidManifest.xml:5:5-44
MERGED from [com.facebook.shimmer:shimmer:0.5.0] C:\Users\christian.gonzalez\.gradle\caches\transforms-3\ec3b398bc556c87d12f7983d5cb6ded0\transformed\shimmer-0.5.0\AndroidManifest.xml:5:5-44
MERGED from [com.facebook.shimmer:shimmer:0.5.0] C:\Users\christian.gonzalez\.gradle\caches\transforms-3\ec3b398bc556c87d12f7983d5cb6ded0\transformed\shimmer-0.5.0\AndroidManifest.xml:5:5-44
MERGED from [androidx.cursoradapter:cursoradapter:1.0.0] C:\Users\christian.gonzalez\.gradle\caches\transforms-3\21118ada5df6c79b12895780d89c985d\transformed\cursoradapter-1.0.0\AndroidManifest.xml:20:5-44
MERGED from [androidx.cursoradapter:cursoradapter:1.0.0] C:\Users\christian.gonzalez\.gradle\caches\transforms-3\21118ada5df6c79b12895780d89c985d\transformed\cursoradapter-1.0.0\AndroidManifest.xml:20:5-44
MERGED from [androidx.cardview:cardview:1.0.0] C:\Users\christian.gonzalez\.gradle\caches\transforms-3\965c1b1f39af8b8b759198589a3f6bc9\transformed\cardview-1.0.0\AndroidManifest.xml:20:5-44
MERGED from [androidx.cardview:cardview:1.0.0] C:\Users\christian.gonzalez\.gradle\caches\transforms-3\965c1b1f39af8b8b759198589a3f6bc9\transformed\cardview-1.0.0\AndroidManifest.xml:20:5-44
MERGED from [androidx.interpolator:interpolator:1.0.0] C:\Users\christian.gonzalez\.gradle\caches\transforms-3\56202021c800ca8022ad705c397ddb93\transformed\interpolator-1.0.0\AndroidManifest.xml:20:5-44
MERGED from [androidx.interpolator:interpolator:1.0.0] C:\Users\christian.gonzalez\.gradle\caches\transforms-3\56202021c800ca8022ad705c397ddb93\transformed\interpolator-1.0.0\AndroidManifest.xml:20:5-44
MERGED from [androidx.versionedparcelable:versionedparcelable:1.1.1] C:\Users\christian.gonzalez\.gradle\caches\transforms-3\c4f88e41234ce4650a868e012aa83bd3\transformed\versionedparcelable-1.1.1\AndroidManifest.xml:20:5-22:41
MERGED from [androidx.versionedparcelable:versionedparcelable:1.1.1] C:\Users\christian.gonzalez\.gradle\caches\transforms-3\c4f88e41234ce4650a868e012aa83bd3\transformed\versionedparcelable-1.1.1\AndroidManifest.xml:20:5-22:41
MERGED from [androidx.profileinstaller:profileinstaller:1.3.0] C:\Users\christian.gonzalez\.gradle\caches\transforms-3\7b9ff34379420acf1c39fbeb005fd97c\transformed\profileinstaller-1.3.0\AndroidManifest.xml:21:5-44
MERGED from [androidx.profileinstaller:profileinstaller:1.3.0] C:\Users\christian.gonzalez\.gradle\caches\transforms-3\7b9ff34379420acf1c39fbeb005fd97c\transformed\profileinstaller-1.3.0\AndroidManifest.xml:21:5-44
MERGED from [androidx.startup:startup-runtime:1.1.1] C:\Users\christian.gonzalez\.gradle\caches\transforms-3\d867123f8c387ff3f72116c3aac48761\transformed\startup-runtime-1.1.1\AndroidManifest.xml:21:5-23:41
MERGED from [androidx.startup:startup-runtime:1.1.1] C:\Users\christian.gonzalez\.gradle\caches\transforms-3\d867123f8c387ff3f72116c3aac48761\transformed\startup-runtime-1.1.1\AndroidManifest.xml:21:5-23:41
MERGED from [androidx.tracing:tracing:1.0.0] C:\Users\christian.gonzalez\.gradle\caches\transforms-3\fc64f11a8b3b25d13443637a07881bd1\transformed\tracing-1.0.0\AndroidManifest.xml:20:5-22:41
MERGED from [androidx.tracing:tracing:1.0.0] C:\Users\christian.gonzalez\.gradle\caches\transforms-3\fc64f11a8b3b25d13443637a07881bd1\transformed\tracing-1.0.0\AndroidManifest.xml:20:5-22:41
MERGED from [androidx.documentfile:documentfile:1.0.0] C:\Users\christian.gonzalez\.gradle\caches\transforms-3\6e2ea4b8841a6d0e905140cd46371095\transformed\documentfile-1.0.0\AndroidManifest.xml:20:5-44
MERGED from [androidx.documentfile:documentfile:1.0.0] C:\Users\christian.gonzalez\.gradle\caches\transforms-3\6e2ea4b8841a6d0e905140cd46371095\transformed\documentfile-1.0.0\AndroidManifest.xml:20:5-44
MERGED from [androidx.localbroadcastmanager:localbroadcastmanager:1.0.0] C:\Users\christian.gonzalez\.gradle\caches\transforms-3\9215affb09f2d279927e775b39c01829\transformed\localbroadcastmanager-1.0.0\AndroidManifest.xml:20:5-44
MERGED from [androidx.localbroadcastmanager:localbroadcastmanager:1.0.0] C:\Users\christian.gonzalez\.gradle\caches\transforms-3\9215affb09f2d279927e775b39c01829\transformed\localbroadcastmanager-1.0.0\AndroidManifest.xml:20:5-44
MERGED from [androidx.print:print:1.0.0] C:\Users\christian.gonzalez\.gradle\caches\transforms-3\2561195ebce79cce08ed37728f245941\transformed\print-1.0.0\AndroidManifest.xml:20:5-44
MERGED from [androidx.print:print:1.0.0] C:\Users\christian.gonzalez\.gradle\caches\transforms-3\2561195ebce79cce08ed37728f245941\transformed\print-1.0.0\AndroidManifest.xml:20:5-44
MERGED from [androidx.arch.core:core-runtime:2.2.0] C:\Users\christian.gonzalez\.gradle\caches\transforms-3\95b11a03fc27406295c23f57717daf0b\transformed\core-runtime-2.2.0\AndroidManifest.xml:20:5-44
MERGED from [androidx.arch.core:core-runtime:2.2.0] C:\Users\christian.gonzalez\.gradle\caches\transforms-3\95b11a03fc27406295c23f57717daf0b\transformed\core-runtime-2.2.0\AndroidManifest.xml:20:5-44
MERGED from [androidx.annotation:annotation-experimental:1.3.0] C:\Users\christian.gonzalez\.gradle\caches\transforms-3\c444e18959178652a477375f04dee02f\transformed\annotation-experimental-1.3.0\AndroidManifest.xml:20:5-44
MERGED from [androidx.annotation:annotation-experimental:1.3.0] C:\Users\christian.gonzalez\.gradle\caches\transforms-3\c444e18959178652a477375f04dee02f\transformed\annotation-experimental-1.3.0\AndroidManifest.xml:20:5-44
MERGED from [com.android.support:exifinterface:27.1.0] C:\Users\christian.gonzalez\.gradle\caches\transforms-3\3fa5c4d2c9719864194534c84f98ee9e\transformed\exifinterface-27.1.0\AndroidManifest.xml:20:5-44
MERGED from [com.android.support:exifinterface:27.1.0] C:\Users\christian.gonzalez\.gradle\caches\transforms-3\3fa5c4d2c9719864194534c84f98ee9e\transformed\exifinterface-27.1.0\AndroidManifest.xml:20:5-44
INJECTED from C:\Users\christian.gonzalez\Documents\APP_Android\ITServices\DropshippingMobileVIP\app\src\main\AndroidManifest.xml
INJECTED from C:\Users\christian.gonzalez\Documents\APP_Android\ITServices\DropshippingMobileVIP\app\src\main\AndroidManifest.xml
	android:targetSdkVersion
		INJECTED from C:\Users\christian.gonzalez\Documents\APP_Android\ITServices\DropshippingMobileVIP\app\src\main\AndroidManifest.xml
		ADDED from C:\Users\christian.gonzalez\Documents\APP_Android\ITServices\DropshippingMobileVIP\app\src\main\AndroidManifest.xml
		INJECTED from C:\Users\christian.gonzalez\Documents\APP_Android\ITServices\DropshippingMobileVIP\app\src\main\AndroidManifest.xml
	android:minSdkVersion
		INJECTED from C:\Users\christian.gonzalez\Documents\APP_Android\ITServices\DropshippingMobileVIP\app\src\main\AndroidManifest.xml
		ADDED from C:\Users\christian.gonzalez\Documents\APP_Android\ITServices\DropshippingMobileVIP\app\src\main\AndroidManifest.xml
		INJECTED from C:\Users\christian.gonzalez\Documents\APP_Android\ITServices\DropshippingMobileVIP\app\src\main\AndroidManifest.xml
provider#androidx.startup.InitializationProvider
ADDED from [androidx.emoji2:emoji2:1.2.0] C:\Users\christian.gonzalez\.gradle\caches\transforms-3\ccc5c26e5bb3e1cb9a5d09d5c7c63d91\transformed\emoji2-1.2.0\AndroidManifest.xml:24:9-32:20
MERGED from [androidx.lifecycle:lifecycle-process:2.6.2] C:\Users\christian.gonzalez\.gradle\caches\transforms-3\856e6a9ea9ca9f70cfb5fcebe521bd45\transformed\lifecycle-process-2.6.2\AndroidManifest.xml:24:9-32:20
MERGED from [androidx.lifecycle:lifecycle-process:2.6.2] C:\Users\christian.gonzalez\.gradle\caches\transforms-3\856e6a9ea9ca9f70cfb5fcebe521bd45\transformed\lifecycle-process-2.6.2\AndroidManifest.xml:24:9-32:20
MERGED from [androidx.profileinstaller:profileinstaller:1.3.0] C:\Users\christian.gonzalez\.gradle\caches\transforms-3\7b9ff34379420acf1c39fbeb005fd97c\transformed\profileinstaller-1.3.0\AndroidManifest.xml:24:9-32:20
MERGED from [androidx.profileinstaller:profileinstaller:1.3.0] C:\Users\christian.gonzalez\.gradle\caches\transforms-3\7b9ff34379420acf1c39fbeb005fd97c\transformed\profileinstaller-1.3.0\AndroidManifest.xml:24:9-32:20
MERGED from [androidx.startup:startup-runtime:1.1.1] C:\Users\christian.gonzalez\.gradle\caches\transforms-3\d867123f8c387ff3f72116c3aac48761\transformed\startup-runtime-1.1.1\AndroidManifest.xml:26:9-30:34
MERGED from [androidx.startup:startup-runtime:1.1.1] C:\Users\christian.gonzalez\.gradle\caches\transforms-3\d867123f8c387ff3f72116c3aac48761\transformed\startup-runtime-1.1.1\AndroidManifest.xml:26:9-30:34
	tools:node
		ADDED from [androidx.emoji2:emoji2:1.2.0] C:\Users\christian.gonzalez\.gradle\caches\transforms-3\ccc5c26e5bb3e1cb9a5d09d5c7c63d91\transformed\emoji2-1.2.0\AndroidManifest.xml:28:13-31
	android:authorities
		ADDED from [androidx.emoji2:emoji2:1.2.0] C:\Users\christian.gonzalez\.gradle\caches\transforms-3\ccc5c26e5bb3e1cb9a5d09d5c7c63d91\transformed\emoji2-1.2.0\AndroidManifest.xml:26:13-68
	android:exported
		ADDED from [androidx.emoji2:emoji2:1.2.0] C:\Users\christian.gonzalez\.gradle\caches\transforms-3\ccc5c26e5bb3e1cb9a5d09d5c7c63d91\transformed\emoji2-1.2.0\AndroidManifest.xml:27:13-37
	android:name
		ADDED from [androidx.emoji2:emoji2:1.2.0] C:\Users\christian.gonzalez\.gradle\caches\transforms-3\ccc5c26e5bb3e1cb9a5d09d5c7c63d91\transformed\emoji2-1.2.0\AndroidManifest.xml:25:13-67
meta-data#androidx.emoji2.text.EmojiCompatInitializer
ADDED from [androidx.emoji2:emoji2:1.2.0] C:\Users\christian.gonzalez\.gradle\caches\transforms-3\ccc5c26e5bb3e1cb9a5d09d5c7c63d91\transformed\emoji2-1.2.0\AndroidManifest.xml:29:13-31:52
	android:value
		ADDED from [androidx.emoji2:emoji2:1.2.0] C:\Users\christian.gonzalez\.gradle\caches\transforms-3\ccc5c26e5bb3e1cb9a5d09d5c7c63d91\transformed\emoji2-1.2.0\AndroidManifest.xml:31:17-49
	android:name
		ADDED from [androidx.emoji2:emoji2:1.2.0] C:\Users\christian.gonzalez\.gradle\caches\transforms-3\ccc5c26e5bb3e1cb9a5d09d5c7c63d91\transformed\emoji2-1.2.0\AndroidManifest.xml:30:17-75
uses-library#androidx.window.extensions
ADDED from [androidx.window:window:1.0.0] C:\Users\christian.gonzalez\.gradle\caches\transforms-3\a7f0fa44cb99c9df6ab216d5b32820ad\transformed\window-1.0.0\AndroidManifest.xml:25:9-27:40
	android:required
		ADDED from [androidx.window:window:1.0.0] C:\Users\christian.gonzalez\.gradle\caches\transforms-3\a7f0fa44cb99c9df6ab216d5b32820ad\transformed\window-1.0.0\AndroidManifest.xml:27:13-37
	android:name
		ADDED from [androidx.window:window:1.0.0] C:\Users\christian.gonzalez\.gradle\caches\transforms-3\a7f0fa44cb99c9df6ab216d5b32820ad\transformed\window-1.0.0\AndroidManifest.xml:26:13-54
uses-library#androidx.window.sidecar
ADDED from [androidx.window:window:1.0.0] C:\Users\christian.gonzalez\.gradle\caches\transforms-3\a7f0fa44cb99c9df6ab216d5b32820ad\transformed\window-1.0.0\AndroidManifest.xml:28:9-30:40
	android:required
		ADDED from [androidx.window:window:1.0.0] C:\Users\christian.gonzalez\.gradle\caches\transforms-3\a7f0fa44cb99c9df6ab216d5b32820ad\transformed\window-1.0.0\AndroidManifest.xml:30:13-37
	android:name
		ADDED from [androidx.window:window:1.0.0] C:\Users\christian.gonzalez\.gradle\caches\transforms-3\a7f0fa44cb99c9df6ab216d5b32820ad\transformed\window-1.0.0\AndroidManifest.xml:29:13-51
permission#${applicationId}.DYNAMIC_RECEIVER_NOT_EXPORTED_PERMISSION
ADDED from [androidx.core:core:1.12.0] C:\Users\christian.gonzalez\.gradle\caches\transforms-3\282f088dc5324e3f79102f32fd36467d\transformed\core-1.12.0\AndroidManifest.xml:22:5-24:47
	android:protectionLevel
		ADDED from [androidx.core:core:1.12.0] C:\Users\christian.gonzalez\.gradle\caches\transforms-3\282f088dc5324e3f79102f32fd36467d\transformed\core-1.12.0\AndroidManifest.xml:24:9-44
	android:name
		ADDED from [androidx.core:core:1.12.0] C:\Users\christian.gonzalez\.gradle\caches\transforms-3\282f088dc5324e3f79102f32fd36467d\transformed\core-1.12.0\AndroidManifest.xml:23:9-81
permission#mx.edu.uthermosillo.a09311065.ITServices.DYNAMIC_RECEIVER_NOT_EXPORTED_PERMISSION
ADDED from [androidx.core:core:1.12.0] C:\Users\christian.gonzalez\.gradle\caches\transforms-3\282f088dc5324e3f79102f32fd36467d\transformed\core-1.12.0\AndroidManifest.xml:22:5-24:47
	android:protectionLevel
		ADDED from [androidx.core:core:1.12.0] C:\Users\christian.gonzalez\.gradle\caches\transforms-3\282f088dc5324e3f79102f32fd36467d\transformed\core-1.12.0\AndroidManifest.xml:24:9-44
	android:name
		ADDED from [androidx.core:core:1.12.0] C:\Users\christian.gonzalez\.gradle\caches\transforms-3\282f088dc5324e3f79102f32fd36467d\transformed\core-1.12.0\AndroidManifest.xml:23:9-81
uses-permission#${applicationId}.DYNAMIC_RECEIVER_NOT_EXPORTED_PERMISSION
ADDED from [androidx.core:core:1.12.0] C:\Users\christian.gonzalez\.gradle\caches\transforms-3\282f088dc5324e3f79102f32fd36467d\transformed\core-1.12.0\AndroidManifest.xml:26:5-97
	android:name
		ADDED from [androidx.core:core:1.12.0] C:\Users\christian.gonzalez\.gradle\caches\transforms-3\282f088dc5324e3f79102f32fd36467d\transformed\core-1.12.0\AndroidManifest.xml:26:22-94
uses-permission#mx.edu.uthermosillo.a09311065.ITServices.DYNAMIC_RECEIVER_NOT_EXPORTED_PERMISSION
ADDED from [androidx.core:core:1.12.0] C:\Users\christian.gonzalez\.gradle\caches\transforms-3\282f088dc5324e3f79102f32fd36467d\transformed\core-1.12.0\AndroidManifest.xml:26:5-97
	android:name
		ADDED from [androidx.core:core:1.12.0] C:\Users\christian.gonzalez\.gradle\caches\transforms-3\282f088dc5324e3f79102f32fd36467d\transformed\core-1.12.0\AndroidManifest.xml:26:22-94
meta-data#androidx.lifecycle.ProcessLifecycleInitializer
ADDED from [androidx.lifecycle:lifecycle-process:2.6.2] C:\Users\christian.gonzalez\.gradle\caches\transforms-3\856e6a9ea9ca9f70cfb5fcebe521bd45\transformed\lifecycle-process-2.6.2\AndroidManifest.xml:29:13-31:52
	android:value
		ADDED from [androidx.lifecycle:lifecycle-process:2.6.2] C:\Users\christian.gonzalez\.gradle\caches\transforms-3\856e6a9ea9ca9f70cfb5fcebe521bd45\transformed\lifecycle-process-2.6.2\AndroidManifest.xml:31:17-49
	android:name
		ADDED from [androidx.lifecycle:lifecycle-process:2.6.2] C:\Users\christian.gonzalez\.gradle\caches\transforms-3\856e6a9ea9ca9f70cfb5fcebe521bd45\transformed\lifecycle-process-2.6.2\AndroidManifest.xml:30:17-78
provider#com.squareup.picasso.PicassoProvider
ADDED from [com.squareup.picasso:picasso:2.71828] C:\Users\christian.gonzalez\.gradle\caches\transforms-3\a0ca321ee6b82c214912340481c5a4e3\transformed\picasso-2.71828\AndroidManifest.xml:8:9-11:40
	android:authorities
		ADDED from [com.squareup.picasso:picasso:2.71828] C:\Users\christian.gonzalez\.gradle\caches\transforms-3\a0ca321ee6b82c214912340481c5a4e3\transformed\picasso-2.71828\AndroidManifest.xml:10:13-72
	android:exported
		ADDED from [com.squareup.picasso:picasso:2.71828] C:\Users\christian.gonzalez\.gradle\caches\transforms-3\a0ca321ee6b82c214912340481c5a4e3\transformed\picasso-2.71828\AndroidManifest.xml:11:13-37
	android:name
		ADDED from [com.squareup.picasso:picasso:2.71828] C:\Users\christian.gonzalez\.gradle\caches\transforms-3\a0ca321ee6b82c214912340481c5a4e3\transformed\picasso-2.71828\AndroidManifest.xml:9:13-64
meta-data#androidx.profileinstaller.ProfileInstallerInitializer
ADDED from [androidx.profileinstaller:profileinstaller:1.3.0] C:\Users\christian.gonzalez\.gradle\caches\transforms-3\7b9ff34379420acf1c39fbeb005fd97c\transformed\profileinstaller-1.3.0\AndroidManifest.xml:29:13-31:52
	android:value
		ADDED from [androidx.profileinstaller:profileinstaller:1.3.0] C:\Users\christian.gonzalez\.gradle\caches\transforms-3\7b9ff34379420acf1c39fbeb005fd97c\transformed\profileinstaller-1.3.0\AndroidManifest.xml:31:17-49
	android:name
		ADDED from [androidx.profileinstaller:profileinstaller:1.3.0] C:\Users\christian.gonzalez\.gradle\caches\transforms-3\7b9ff34379420acf1c39fbeb005fd97c\transformed\profileinstaller-1.3.0\AndroidManifest.xml:30:17-85
receiver#androidx.profileinstaller.ProfileInstallReceiver
ADDED from [androidx.profileinstaller:profileinstaller:1.3.0] C:\Users\christian.gonzalez\.gradle\caches\transforms-3\7b9ff34379420acf1c39fbeb005fd97c\transformed\profileinstaller-1.3.0\AndroidManifest.xml:34:9-52:20
	android:enabled
		ADDED from [androidx.profileinstaller:profileinstaller:1.3.0] C:\Users\christian.gonzalez\.gradle\caches\transforms-3\7b9ff34379420acf1c39fbeb005fd97c\transformed\profileinstaller-1.3.0\AndroidManifest.xml:37:13-35
	android:exported
		ADDED from [androidx.profileinstaller:profileinstaller:1.3.0] C:\Users\christian.gonzalez\.gradle\caches\transforms-3\7b9ff34379420acf1c39fbeb005fd97c\transformed\profileinstaller-1.3.0\AndroidManifest.xml:38:13-36
	android:permission
		ADDED from [androidx.profileinstaller:profileinstaller:1.3.0] C:\Users\christian.gonzalez\.gradle\caches\transforms-3\7b9ff34379420acf1c39fbeb005fd97c\transformed\profileinstaller-1.3.0\AndroidManifest.xml:39:13-57
	android:directBootAware
		ADDED from [androidx.profileinstaller:profileinstaller:1.3.0] C:\Users\christian.gonzalez\.gradle\caches\transforms-3\7b9ff34379420acf1c39fbeb005fd97c\transformed\profileinstaller-1.3.0\AndroidManifest.xml:36:13-44
	android:name
		ADDED from [androidx.profileinstaller:profileinstaller:1.3.0] C:\Users\christian.gonzalez\.gradle\caches\transforms-3\7b9ff34379420acf1c39fbeb005fd97c\transformed\profileinstaller-1.3.0\AndroidManifest.xml:35:13-76
intent-filter#action:name:androidx.profileinstaller.action.INSTALL_PROFILE
ADDED from [androidx.profileinstaller:profileinstaller:1.3.0] C:\Users\christian.gonzalez\.gradle\caches\transforms-3\7b9ff34379420acf1c39fbeb005fd97c\transformed\profileinstaller-1.3.0\AndroidManifest.xml:40:13-42:29
action#androidx.profileinstaller.action.INSTALL_PROFILE
ADDED from [androidx.profileinstaller:profileinstaller:1.3.0] C:\Users\christian.gonzalez\.gradle\caches\transforms-3\7b9ff34379420acf1c39fbeb005fd97c\transformed\profileinstaller-1.3.0\AndroidManifest.xml:41:17-91
	android:name
		ADDED from [androidx.profileinstaller:profileinstaller:1.3.0] C:\Users\christian.gonzalez\.gradle\caches\transforms-3\7b9ff34379420acf1c39fbeb005fd97c\transformed\profileinstaller-1.3.0\AndroidManifest.xml:41:25-88
intent-filter#action:name:androidx.profileinstaller.action.SKIP_FILE
ADDED from [androidx.profileinstaller:profileinstaller:1.3.0] C:\Users\christian.gonzalez\.gradle\caches\transforms-3\7b9ff34379420acf1c39fbeb005fd97c\transformed\profileinstaller-1.3.0\AndroidManifest.xml:43:13-45:29
action#androidx.profileinstaller.action.SKIP_FILE
ADDED from [androidx.profileinstaller:profileinstaller:1.3.0] C:\Users\christian.gonzalez\.gradle\caches\transforms-3\7b9ff34379420acf1c39fbeb005fd97c\transformed\profileinstaller-1.3.0\AndroidManifest.xml:44:17-85
	android:name
		ADDED from [androidx.profileinstaller:profileinstaller:1.3.0] C:\Users\christian.gonzalez\.gradle\caches\transforms-3\7b9ff34379420acf1c39fbeb005fd97c\transformed\profileinstaller-1.3.0\AndroidManifest.xml:44:25-82
intent-filter#action:name:androidx.profileinstaller.action.SAVE_PROFILE
ADDED from [androidx.profileinstaller:profileinstaller:1.3.0] C:\Users\christian.gonzalez\.gradle\caches\transforms-3\7b9ff34379420acf1c39fbeb005fd97c\transformed\profileinstaller-1.3.0\AndroidManifest.xml:46:13-48:29
action#androidx.profileinstaller.action.SAVE_PROFILE
ADDED from [androidx.profileinstaller:profileinstaller:1.3.0] C:\Users\christian.gonzalez\.gradle\caches\transforms-3\7b9ff34379420acf1c39fbeb005fd97c\transformed\profileinstaller-1.3.0\AndroidManifest.xml:47:17-88
	android:name
		ADDED from [androidx.profileinstaller:profileinstaller:1.3.0] C:\Users\christian.gonzalez\.gradle\caches\transforms-3\7b9ff34379420acf1c39fbeb005fd97c\transformed\profileinstaller-1.3.0\AndroidManifest.xml:47:25-85
intent-filter#action:name:androidx.profileinstaller.action.BENCHMARK_OPERATION
ADDED from [androidx.profileinstaller:profileinstaller:1.3.0] C:\Users\christian.gonzalez\.gradle\caches\transforms-3\7b9ff34379420acf1c39fbeb005fd97c\transformed\profileinstaller-1.3.0\AndroidManifest.xml:49:13-51:29
action#androidx.profileinstaller.action.BENCHMARK_OPERATION
ADDED from [androidx.profileinstaller:profileinstaller:1.3.0] C:\Users\christian.gonzalez\.gradle\caches\transforms-3\7b9ff34379420acf1c39fbeb005fd97c\transformed\profileinstaller-1.3.0\AndroidManifest.xml:50:17-95
	android:name
		ADDED from [androidx.profileinstaller:profileinstaller:1.3.0] C:\Users\christian.gonzalez\.gradle\caches\transforms-3\7b9ff34379420acf1c39fbeb005fd97c\transformed\profileinstaller-1.3.0\AndroidManifest.xml:50:25-92
